[{
    "action": "crop",
    "src": ["$data"],
    "dst": "$cropped",
    "settings": {
        "sides": {
            "left": "0px",
            "top": "0px",
            "right": "5016px",
            "bottom": "3344px"
        }
    }
}, {
    "action": "crop",
    "src": ["$data"],
    "dst": "$cropped",
    "settings": {
        "sides": {
            "left": "0px",
            "top": "304px",
            "right": "5016px",
            "bottom": "3040px"
        }
    }
}, {
    "action": "crop",
    "src": ["$data"],
    "dst": "$cropped",
    "settings": {
        "sides": {
            "left": "0px",
            "top": "608px",
            "right": "5016px",
            "bottom": "2736px"
        }
    }
}, {
    "action": "crop",
    "src": ["$data"],
    "dst": "$cropped",
    "settings": {
        "sides": {
            "left": "0px",
            "top": "912px",
            "right": "5016px",
            "bottom": "2432px"
        }
    }
}, {
    "action": "crop",
    "src": ["$data"],
    "dst": "$cropped",
    "settings": {
        "sides": {
            "left": "0px",
            "top": "1216px",
            "right": "5016px",
            "bottom": "2128px"
        }
    }
}, {
    "action": "crop",
    "src": ["$data"],
    "dst": "$cropped",
    "settings": {
        "sides": {
            "left": "0px",
            "top": "1520px",
            "right": "5016px",
            "bottom": "1824px"
        }
    }
}, {
    "action": "crop",
    "src": ["$data"],
    "dst": "$cropped",
    "settings": {
        "sides": {
            "left": "0px",
            "top": "1824px",
            "right": "5016px",
            "bottom": "1520px"
        }
    }
}, {
    "action": "crop",
    "src": ["$data"],
    "dst": "$cropped",
    "settings": {
        "sides": {
            "left": "0px",
            "top": "2128px",
            "right": "5016px",
            "bottom": "1216px"
        }
    }
}, {
    "action": "crop",
    "src": ["$data"],
    "dst": "$cropped",
    "settings": {
        "sides": {
            "left": "0px",
            "top": "2432px",
            "right": "5016px",
            "bottom": "912px"
        }
    }
}, {
    "action": "crop",
    "src": ["$data"],
    "dst": "$cropped",
    "settings": {
        "sides": {
            "left": "0px",
            "top": "2736px",
            "right": "5016px",
            "bottom": "608px"
        }
    }
}, {
    "action": "crop",
    "src": ["$data"],
    "dst": "$cropped",
    "settings": {
        "sides": {
            "left": "0px",
            "top": "3040px",
            "right": "5016px",
            "bottom": "304px"
        }
    }
}, {
    "action": "crop",
    "src": ["$data"],
    "dst": "$cropped",
    "settings": {
        "sides": {
            "left": "0px",
            "top": "3344px",
            "right": "5016px",
            "bottom": "0px"
        }
    }
}, {
    "action": "crop",
    "src": ["$data"],
    "dst": "$cropped",
    "settings": {
        "sides": {
            "left": "456px",
            "top": "0px",
            "right": "4560px",
            "bottom": "3344px"
        }
    }
}, {
    "action": "crop",
    "src": ["$data"],
    "dst": "$cropped",
    "settings": {
        "sides": {
            "left": "456px",
            "top": "304px",
            "right": "4560px",
            "bottom": "3040px"
        }
    }
}, {
    "action": "crop",
    "src": ["$data"],
    "dst": "$cropped",
    "settings": {
        "sides": {
            "left": "456px",
            "top": "608px",
            "right": "4560px",
            "bottom": "2736px"
        }
    }
}, {
    "action": "crop",
    "src": ["$data"],
    "dst": "$cropped",
    "settings": {
        "sides": {
            "left": "456px",
            "top": "912px",
            "right": "4560px",
            "bottom": "2432px"
        }
    }
}, {
    "action": "crop",
    "src": ["$data"],
    "dst": "$cropped",
    "settings": {
        "sides": {
            "left": "456px",
            "top": "1216px",
            "right": "4560px",
            "bottom": "2128px"
        }
    }
}, {
    "action": "crop",
    "src": ["$data"],
    "dst": "$cropped",
    "settings": {
        "sides": {
            "left": "456px",
            "top": "1520px",
            "right": "4560px",
            "bottom": "1824px"
        }
    }
}, {
    "action": "crop",
    "src": ["$data"],
    "dst": "$cropped",
    "settings": {
        "sides": {
            "left": "456px",
            "top": "1824px",
            "right": "4560px",
            "bottom": "1520px"
        }
    }
}, {
    "action": "crop",
    "src": ["$data"],
    "dst": "$cropped",
    "settings": {
        "sides": {
            "left": "456px",
            "top": "2128px",
            "right": "4560px",
            "bottom": "1216px"
        }
    }
}, {
    "action": "crop",
    "src": ["$data"],
    "dst": "$cropped",
    "settings": {
        "sides": {
            "left": "456px",
            "top": "2432px",
            "right": "4560px",
            "bottom": "912px"
        }
    }
}, {
    "action": "crop",
    "src": ["$data"],
    "dst": "$cropped",
    "settings": {
        "sides": {
            "left": "456px",
            "top": "2736px",
            "right": "4560px",
            "bottom": "608px"
        }
    }
}, {
    "action": "crop",
    "src": ["$data"],
    "dst": "$cropped",
    "settings": {
        "sides": {
            "left": "456px",
            "top": "3040px",
            "right": "4560px",
            "bottom": "304px"
        }
    }
}, {
    "action": "crop",
    "src": ["$data"],
    "dst": "$cropped",
    "settings": {
        "sides": {
            "left": "456px",
            "top": "3344px",
            "right": "4560px",
            "bottom": "0px"
        }
    }
}, {
    "action": "crop",
    "src": ["$data"],
    "dst": "$cropped",
    "settings": {
        "sides": {
            "left": "912px",
            "top": "0px",
            "right": "4104px",
            "bottom": "3344px"
        }
    }
}, {
    "action": "crop",
    "src": ["$data"],
    "dst": "$cropped",
    "settings": {
        "sides": {
            "left": "912px",
            "top": "304px",
            "right": "4104px",
            "bottom": "3040px"
        }
    }
}, {
    "action": "crop",
    "src": ["$data"],
    "dst": "$cropped",
    "settings": {
        "sides": {
            "left": "912px",
            "top": "608px",
            "right": "4104px",
            "bottom": "2736px"
        }
    }
}, {
    "action": "crop",
    "src": ["$data"],
    "dst": "$cropped",
    "settings": {
        "sides": {
            "left": "912px",
            "top": "912px",
            "right": "4104px",
            "bottom": "2432px"
        }
    }
}, {
    "action": "crop",
    "src": ["$data"],
    "dst": "$cropped",
    "settings": {
        "sides": {
            "left": "912px",
            "top": "1216px",
            "right": "4104px",
            "bottom": "2128px"
        }
    }
}, {
    "action": "crop",
    "src": ["$data"],
    "dst": "$cropped",
    "settings": {
        "sides": {
            "left": "912px",
            "top": "1520px",
            "right": "4104px",
            "bottom": "1824px"
        }
    }
}, {
    "action": "crop",
    "src": ["$data"],
    "dst": "$cropped",
    "settings": {
        "sides": {
            "left": "912px",
            "top": "1824px",
            "right": "4104px",
            "bottom": "1520px"
        }
    }
}, {
    "action": "crop",
    "src": ["$data"],
    "dst": "$cropped",
    "settings": {
        "sides": {
            "left": "912px",
            "top": "2128px",
            "right": "4104px",
            "bottom": "1216px"
        }
    }
}, {
    "action": "crop",
    "src": ["$data"],
    "dst": "$cropped",
    "settings": {
        "sides": {
            "left": "912px",
            "top": "2432px",
            "right": "4104px",
            "bottom": "912px"
        }
    }
}, {
    "action": "crop",
    "src": ["$data"],
    "dst": "$cropped",
    "settings": {
        "sides": {
            "left": "912px",
            "top": "2736px",
            "right": "4104px",
            "bottom": "608px"
        }
    }
}, {
    "action": "crop",
    "src": ["$data"],
    "dst": "$cropped",
    "settings": {
        "sides": {
            "left": "912px",
            "top": "3040px",
            "right": "4104px",
            "bottom": "304px"
        }
    }
}, {
    "action": "crop",
    "src": ["$data"],
    "dst": "$cropped",
    "settings": {
        "sides": {
            "left": "912px",
            "top": "3344px",
            "right": "4104px",
            "bottom": "0px"
        }
    }
}, {
    "action": "crop",
    "src": ["$data"],
    "dst": "$cropped",
    "settings": {
        "sides": {
            "left": "1368px",
            "top": "0px",
            "right": "3648px",
            "bottom": "3344px"
        }
    }
}, {
    "action": "crop",
    "src": ["$data"],
    "dst": "$cropped",
    "settings": {
        "sides": {
            "left": "1368px",
            "top": "304px",
            "right": "3648px",
            "bottom": "3040px"
        }
    }
}, {
    "action": "crop",
    "src": ["$data"],
    "dst": "$cropped",
    "settings": {
        "sides": {
            "left": "1368px",
            "top": "608px",
            "right": "3648px",
            "bottom": "2736px"
        }
    }
}, {
    "action": "crop",
    "src": ["$data"],
    "dst": "$cropped",
    "settings": {
        "sides": {
            "left": "1368px",
            "top": "912px",
            "right": "3648px",
            "bottom": "2432px"
        }
    }
}, {
    "action": "crop",
    "src": ["$data"],
    "dst": "$cropped",
    "settings": {
        "sides": {
            "left": "1368px",
            "top": "1216px",
            "right": "3648px",
            "bottom": "2128px"
        }
    }
}, {
    "action": "crop",
    "src": ["$data"],
    "dst": "$cropped",
    "settings": {
        "sides": {
            "left": "1368px",
            "top": "1520px",
            "right": "3648px",
            "bottom": "1824px"
        }
    }
}, {
    "action": "crop",
    "src": ["$data"],
    "dst": "$cropped",
    "settings": {
        "sides": {
            "left": "1368px",
            "top": "1824px",
            "right": "3648px",
            "bottom": "1520px"
        }
    }
}, {
    "action": "crop",
    "src": ["$data"],
    "dst": "$cropped",
    "settings": {
        "sides": {
            "left": "1368px",
            "top": "2128px",
            "right": "3648px",
            "bottom": "1216px"
        }
    }
}, {
    "action": "crop",
    "src": ["$data"],
    "dst": "$cropped",
    "settings": {
        "sides": {
            "left": "1368px",
            "top": "2432px",
            "right": "3648px",
            "bottom": "912px"
        }
    }
}, {
    "action": "crop",
    "src": ["$data"],
    "dst": "$cropped",
    "settings": {
        "sides": {
            "left": "1368px",
            "top": "2736px",
            "right": "3648px",
            "bottom": "608px"
        }
    }
}, {
    "action": "crop",
    "src": ["$data"],
    "dst": "$cropped",
    "settings": {
        "sides": {
            "left": "1368px",
            "top": "3040px",
            "right": "3648px",
            "bottom": "304px"
        }
    }
}, {
    "action": "crop",
    "src": ["$data"],
    "dst": "$cropped",
    "settings": {
        "sides": {
            "left": "1368px",
            "top": "3344px",
            "right": "3648px",
            "bottom": "0px"
        }
    }
}, {
    "action": "crop",
    "src": ["$data"],
    "dst": "$cropped",
    "settings": {
        "sides": {
            "left": "1824px",
            "top": "0px",
            "right": "3192px",
            "bottom": "3344px"
        }
    }
}, {
    "action": "crop",
    "src": ["$data"],
    "dst": "$cropped",
    "settings": {
        "sides": {
            "left": "1824px",
            "top": "304px",
            "right": "3192px",
            "bottom": "3040px"
        }
    }
}, {
    "action": "crop",
    "src": ["$data"],
    "dst": "$cropped",
    "settings": {
        "sides": {
            "left": "1824px",
            "top": "608px",
            "right": "3192px",
            "bottom": "2736px"
        }
    }
}, {
    "action": "crop",
    "src": ["$data"],
    "dst": "$cropped",
    "settings": {
        "sides": {
            "left": "1824px",
            "top": "912px",
            "right": "3192px",
            "bottom": "2432px"
        }
    }
}, {
    "action": "crop",
    "src": ["$data"],
    "dst": "$cropped",
    "settings": {
        "sides": {
            "left": "1824px",
            "top": "1216px",
            "right": "3192px",
            "bottom": "2128px"
        }
    }
}, {
    "action": "crop",
    "src": ["$data"],
    "dst": "$cropped",
    "settings": {
        "sides": {
            "left": "1824px",
            "top": "1520px",
            "right": "3192px",
            "bottom": "1824px"
        }
    }
}, {
    "action": "crop",
    "src": ["$data"],
    "dst": "$cropped",
    "settings": {
        "sides": {
            "left": "1824px",
            "top": "1824px",
            "right": "3192px",
            "bottom": "1520px"
        }
    }
}, {
    "action": "crop",
    "src": ["$data"],
    "dst": "$cropped",
    "settings": {
        "sides": {
            "left": "1824px",
            "top": "2128px",
            "right": "3192px",
            "bottom": "1216px"
        }
    }
}, {
    "action": "crop",
    "src": ["$data"],
    "dst": "$cropped",
    "settings": {
        "sides": {
            "left": "1824px",
            "top": "2432px",
            "right": "3192px",
            "bottom": "912px"
        }
    }
}, {
    "action": "crop",
    "src": ["$data"],
    "dst": "$cropped",
    "settings": {
        "sides": {
            "left": "1824px",
            "top": "2736px",
            "right": "3192px",
            "bottom": "608px"
        }
    }
}, {
    "action": "crop",
    "src": ["$data"],
    "dst": "$cropped",
    "settings": {
        "sides": {
            "left": "1824px",
            "top": "3040px",
            "right": "3192px",
            "bottom": "304px"
        }
    }
}, {
    "action": "crop",
    "src": ["$data"],
    "dst": "$cropped",
    "settings": {
        "sides": {
            "left": "1824px",
            "top": "3344px",
            "right": "3192px",
            "bottom": "0px"
        }
    }
}, {
    "action": "crop",
    "src": ["$data"],
    "dst": "$cropped",
    "settings": {
        "sides": {
            "left": "2280px",
            "top": "0px",
            "right": "2736px",
            "bottom": "3344px"
        }
    }
}, {
    "action": "crop",
    "src": ["$data"],
    "dst": "$cropped",
    "settings": {
        "sides": {
            "left": "2280px",
            "top": "304px",
            "right": "2736px",
            "bottom": "3040px"
        }
    }
}, {
    "action": "crop",
    "src": ["$data"],
    "dst": "$cropped",
    "settings": {
        "sides": {
            "left": "2280px",
            "top": "608px",
            "right": "2736px",
            "bottom": "2736px"
        }
    }
}, {
    "action": "crop",
    "src": ["$data"],
    "dst": "$cropped",
    "settings": {
        "sides": {
            "left": "2280px",
            "top": "912px",
            "right": "2736px",
            "bottom": "2432px"
        }
    }
}, {
    "action": "crop",
    "src": ["$data"],
    "dst": "$cropped",
    "settings": {
        "sides": {
            "left": "2280px",
            "top": "1216px",
            "right": "2736px",
            "bottom": "2128px"
        }
    }
}, {
    "action": "crop",
    "src": ["$data"],
    "dst": "$cropped",
    "settings": {
        "sides": {
            "left": "2280px",
            "top": "1520px",
            "right": "2736px",
            "bottom": "1824px"
        }
    }
}, {
    "action": "crop",
    "src": ["$data"],
    "dst": "$cropped",
    "settings": {
        "sides": {
            "left": "2280px",
            "top": "1824px",
            "right": "2736px",
            "bottom": "1520px"
        }
    }
}, {
    "action": "crop",
    "src": ["$data"],
    "dst": "$cropped",
    "settings": {
        "sides": {
            "left": "2280px",
            "top": "2128px",
            "right": "2736px",
            "bottom": "1216px"
        }
    }
}, {
    "action": "crop",
    "src": ["$data"],
    "dst": "$cropped",
    "settings": {
        "sides": {
            "left": "2280px",
            "top": "2432px",
            "right": "2736px",
            "bottom": "912px"
        }
    }
}, {
    "action": "crop",
    "src": ["$data"],
    "dst": "$cropped",
    "settings": {
        "sides": {
            "left": "2280px",
            "top": "2736px",
            "right": "2736px",
            "bottom": "608px"
        }
    }
}, {
    "action": "crop",
    "src": ["$data"],
    "dst": "$cropped",
    "settings": {
        "sides": {
            "left": "2280px",
            "top": "3040px",
            "right": "2736px",
            "bottom": "304px"
        }
    }
}, {
    "action": "crop",
    "src": ["$data"],
    "dst": "$cropped",
    "settings": {
        "sides": {
            "left": "2280px",
            "top": "3344px",
            "right": "2736px",
            "bottom": "0px"
        }
    }
}, {
    "action": "crop",
    "src": ["$data"],
    "dst": "$cropped",
    "settings": {
        "sides": {
            "left": "2736px",
            "top": "0px",
            "right": "2280px",
            "bottom": "3344px"
        }
    }
}, {
    "action": "crop",
    "src": ["$data"],
    "dst": "$cropped",
    "settings": {
        "sides": {
            "left": "2736px",
            "top": "304px",
            "right": "2280px",
            "bottom": "3040px"
        }
    }
}, {
    "action": "crop",
    "src": ["$data"],
    "dst": "$cropped",
    "settings": {
        "sides": {
            "left": "2736px",
            "top": "608px",
            "right": "2280px",
            "bottom": "2736px"
        }
    }
}, {
    "action": "crop",
    "src": ["$data"],
    "dst": "$cropped",
    "settings": {
        "sides": {
            "left": "2736px",
            "top": "912px",
            "right": "2280px",
            "bottom": "2432px"
        }
    }
}, {
    "action": "crop",
    "src": ["$data"],
    "dst": "$cropped",
    "settings": {
        "sides": {
            "left": "2736px",
            "top": "1216px",
            "right": "2280px",
            "bottom": "2128px"
        }
    }
}, {
    "action": "crop",
    "src": ["$data"],
    "dst": "$cropped",
    "settings": {
        "sides": {
            "left": "2736px",
            "top": "1520px",
            "right": "2280px",
            "bottom": "1824px"
        }
    }
}, {
    "action": "crop",
    "src": ["$data"],
    "dst": "$cropped",
    "settings": {
        "sides": {
            "left": "2736px",
            "top": "1824px",
            "right": "2280px",
            "bottom": "1520px"
        }
    }
}, {
    "action": "crop",
    "src": ["$data"],
    "dst": "$cropped",
    "settings": {
        "sides": {
            "left": "2736px",
            "top": "2128px",
            "right": "2280px",
            "bottom": "1216px"
        }
    }
}, {
    "action": "crop",
    "src": ["$data"],
    "dst": "$cropped",
    "settings": {
        "sides": {
            "left": "2736px",
            "top": "2432px",
            "right": "2280px",
            "bottom": "912px"
        }
    }
}, {
    "action": "crop",
    "src": ["$data"],
    "dst": "$cropped",
    "settings": {
        "sides": {
            "left": "2736px",
            "top": "2736px",
            "right": "2280px",
            "bottom": "608px"
        }
    }
}, {
    "action": "crop",
    "src": ["$data"],
    "dst": "$cropped",
    "settings": {
        "sides": {
            "left": "2736px",
            "top": "3040px",
            "right": "2280px",
            "bottom": "304px"
        }
    }
}, {
    "action": "crop",
    "src": ["$data"],
    "dst": "$cropped",
    "settings": {
        "sides": {
            "left": "2736px",
            "top": "3344px",
            "right": "2280px",
            "bottom": "0px"
        }
    }
}, {
    "action": "crop",
    "src": ["$data"],
    "dst": "$cropped",
    "settings": {
        "sides": {
            "left": "3192px",
            "top": "0px",
            "right": "1824px",
            "bottom": "3344px"
        }
    }
}, {
    "action": "crop",
    "src": ["$data"],
    "dst": "$cropped",
    "settings": {
        "sides": {
            "left": "3192px",
            "top": "304px",
            "right": "1824px",
            "bottom": "3040px"
        }
    }
}, {
    "action": "crop",
    "src": ["$data"],
    "dst": "$cropped",
    "settings": {
        "sides": {
            "left": "3192px",
            "top": "608px",
            "right": "1824px",
            "bottom": "2736px"
        }
    }
}, {
    "action": "crop",
    "src": ["$data"],
    "dst": "$cropped",
    "settings": {
        "sides": {
            "left": "3192px",
            "top": "912px",
            "right": "1824px",
            "bottom": "2432px"
        }
    }
}, {
    "action": "crop",
    "src": ["$data"],
    "dst": "$cropped",
    "settings": {
        "sides": {
            "left": "3192px",
            "top": "1216px",
            "right": "1824px",
            "bottom": "2128px"
        }
    }
}, {
    "action": "crop",
    "src": ["$data"],
    "dst": "$cropped",
    "settings": {
        "sides": {
            "left": "3192px",
            "top": "1520px",
            "right": "1824px",
            "bottom": "1824px"
        }
    }
}, {
    "action": "crop",
    "src": ["$data"],
    "dst": "$cropped",
    "settings": {
        "sides": {
            "left": "3192px",
            "top": "1824px",
            "right": "1824px",
            "bottom": "1520px"
        }
    }
}, {
    "action": "crop",
    "src": ["$data"],
    "dst": "$cropped",
    "settings": {
        "sides": {
            "left": "3192px",
            "top": "2128px",
            "right": "1824px",
            "bottom": "1216px"
        }
    }
}, {
    "action": "crop",
    "src": ["$data"],
    "dst": "$cropped",
    "settings": {
        "sides": {
            "left": "3192px",
            "top": "2432px",
            "right": "1824px",
            "bottom": "912px"
        }
    }
}, {
    "action": "crop",
    "src": ["$data"],
    "dst": "$cropped",
    "settings": {
        "sides": {
            "left": "3192px",
            "top": "2736px",
            "right": "1824px",
            "bottom": "608px"
        }
    }
}, {
    "action": "crop",
    "src": ["$data"],
    "dst": "$cropped",
    "settings": {
        "sides": {
            "left": "3192px",
            "top": "3040px",
            "right": "1824px",
            "bottom": "304px"
        }
    }
}, {
    "action": "crop",
    "src": ["$data"],
    "dst": "$cropped",
    "settings": {
        "sides": {
            "left": "3192px",
            "top": "3344px",
            "right": "1824px",
            "bottom": "0px"
        }
    }
}, {
    "action": "crop",
    "src": ["$data"],
    "dst": "$cropped",
    "settings": {
        "sides": {
            "left": "3648px",
            "top": "0px",
            "right": "1368px",
            "bottom": "3344px"
        }
    }
}, {
    "action": "crop",
    "src": ["$data"],
    "dst": "$cropped",
    "settings": {
        "sides": {
            "left": "3648px",
            "top": "304px",
            "right": "1368px",
            "bottom": "3040px"
        }
    }
}, {
    "action": "crop",
    "src": ["$data"],
    "dst": "$cropped",
    "settings": {
        "sides": {
            "left": "3648px",
            "top": "608px",
            "right": "1368px",
            "bottom": "2736px"
        }
    }
}, {
    "action": "crop",
    "src": ["$data"],
    "dst": "$cropped",
    "settings": {
        "sides": {
            "left": "3648px",
            "top": "912px",
            "right": "1368px",
            "bottom": "2432px"
        }
    }
}, {
    "action": "crop",
    "src": ["$data"],
    "dst": "$cropped",
    "settings": {
        "sides": {
            "left": "3648px",
            "top": "1216px",
            "right": "1368px",
            "bottom": "2128px"
        }
    }
}, {
    "action": "crop",
    "src": ["$data"],
    "dst": "$cropped",
    "settings": {
        "sides": {
            "left": "3648px",
            "top": "1520px",
            "right": "1368px",
            "bottom": "1824px"
        }
    }
}, {
    "action": "crop",
    "src": ["$data"],
    "dst": "$cropped",
    "settings": {
        "sides": {
            "left": "3648px",
            "top": "1824px",
            "right": "1368px",
            "bottom": "1520px"
        }
    }
}, {
    "action": "crop",
    "src": ["$data"],
    "dst": "$cropped",
    "settings": {
        "sides": {
            "left": "3648px",
            "top": "2128px",
            "right": "1368px",
            "bottom": "1216px"
        }
    }
}, {
    "action": "crop",
    "src": ["$data"],
    "dst": "$cropped",
    "settings": {
        "sides": {
            "left": "3648px",
            "top": "2432px",
            "right": "1368px",
            "bottom": "912px"
        }
    }
}, {
    "action": "crop",
    "src": ["$data"],
    "dst": "$cropped",
    "settings": {
        "sides": {
            "left": "3648px",
            "top": "2736px",
            "right": "1368px",
            "bottom": "608px"
        }
    }
}, {
    "action": "crop",
    "src": ["$data"],
    "dst": "$cropped",
    "settings": {
        "sides": {
            "left": "3648px",
            "top": "3040px",
            "right": "1368px",
            "bottom": "304px"
        }
    }
}, {
    "action": "crop",
    "src": ["$data"],
    "dst": "$cropped",
    "settings": {
        "sides": {
            "left": "3648px",
            "top": "3344px",
            "right": "1368px",
            "bottom": "0px"
        }
    }
}, {
    "action": "crop",
    "src": ["$data"],
    "dst": "$cropped",
    "settings": {
        "sides": {
            "left": "4104px",
            "top": "0px",
            "right": "912px",
            "bottom": "3344px"
        }
    }
}, {
    "action": "crop",
    "src": ["$data"],
    "dst": "$cropped",
    "settings": {
        "sides": {
            "left": "4104px",
            "top": "304px",
            "right": "912px",
            "bottom": "3040px"
        }
    }
}, {
    "action": "crop",
    "src": ["$data"],
    "dst": "$cropped",
    "settings": {
        "sides": {
            "left": "4104px",
            "top": "608px",
            "right": "912px",
            "bottom": "2736px"
        }
    }
}, {
    "action": "crop",
    "src": ["$data"],
    "dst": "$cropped",
    "settings": {
        "sides": {
            "left": "4104px",
            "top": "912px",
            "right": "912px",
            "bottom": "2432px"
        }
    }
}, {
    "action": "crop",
    "src": ["$data"],
    "dst": "$cropped",
    "settings": {
        "sides": {
            "left": "4104px",
            "top": "1216px",
            "right": "912px",
            "bottom": "2128px"
        }
    }
}, {
    "action": "crop",
    "src": ["$data"],
    "dst": "$cropped",
    "settings": {
        "sides": {
            "left": "4104px",
            "top": "1520px",
            "right": "912px",
            "bottom": "1824px"
        }
    }
}, {
    "action": "crop",
    "src": ["$data"],
    "dst": "$cropped",
    "settings": {
        "sides": {
            "left": "4104px",
            "top": "1824px",
            "right": "912px",
            "bottom": "1520px"
        }
    }
}, {
    "action": "crop",
    "src": ["$data"],
    "dst": "$cropped",
    "settings": {
        "sides": {
            "left": "4104px",
            "top": "2128px",
            "right": "912px",
            "bottom": "1216px"
        }
    }
}, {
    "action": "crop",
    "src": ["$data"],
    "dst": "$cropped",
    "settings": {
        "sides": {
            "left": "4104px",
            "top": "2432px",
            "right": "912px",
            "bottom": "912px"
        }
    }
}, {
    "action": "crop",
    "src": ["$data"],
    "dst": "$cropped",
    "settings": {
        "sides": {
            "left": "4104px",
            "top": "2736px",
            "right": "912px",
            "bottom": "608px"
        }
    }
}, {
    "action": "crop",
    "src": ["$data"],
    "dst": "$cropped",
    "settings": {
        "sides": {
            "left": "4104px",
            "top": "3040px",
            "right": "912px",
            "bottom": "304px"
        }
    }
}, {
    "action": "crop",
    "src": ["$data"],
    "dst": "$cropped",
    "settings": {
        "sides": {
            "left": "4104px",
            "top": "3344px",
            "right": "912px",
            "bottom": "0px"
        }
    }
}, {
    "action": "crop",
    "src": ["$data"],
    "dst": "$cropped",
    "settings": {
        "sides": {
            "left": "4560px",
            "top": "0px",
            "right": "456px",
            "bottom": "3344px"
        }
    }
}, {
    "action": "crop",
    "src": ["$data"],
    "dst": "$cropped",
    "settings": {
        "sides": {
            "left": "4560px",
            "top": "304px",
            "right": "456px",
            "bottom": "3040px"
        }
    }
}, {
    "action": "crop",
    "src": ["$data"],
    "dst": "$cropped",
    "settings": {
        "sides": {
            "left": "4560px",
            "top": "608px",
            "right": "456px",
            "bottom": "2736px"
        }
    }
}, {
    "action": "crop",
    "src": ["$data"],
    "dst": "$cropped",
    "settings": {
        "sides": {
            "left": "4560px",
            "top": "912px",
            "right": "456px",
            "bottom": "2432px"
        }
    }
}, {
    "action": "crop",
    "src": ["$data"],
    "dst": "$cropped",
    "settings": {
        "sides": {
            "left": "4560px",
            "top": "1216px",
            "right": "456px",
            "bottom": "2128px"
        }
    }
}, {
    "action": "crop",
    "src": ["$data"],
    "dst": "$cropped",
    "settings": {
        "sides": {
            "left": "4560px",
            "top": "1520px",
            "right": "456px",
            "bottom": "1824px"
        }
    }
}, {
    "action": "crop",
    "src": ["$data"],
    "dst": "$cropped",
    "settings": {
        "sides": {
            "left": "4560px",
            "top": "1824px",
            "right": "456px",
            "bottom": "1520px"
        }
    }
}, {
    "action": "crop",
    "src": ["$data"],
    "dst": "$cropped",
    "settings": {
        "sides": {
            "left": "4560px",
            "top": "2128px",
            "right": "456px",
            "bottom": "1216px"
        }
    }
}, {
    "action": "crop",
    "src": ["$data"],
    "dst": "$cropped",
    "settings": {
        "sides": {
            "left": "4560px",
            "top": "2432px",
            "right": "456px",
            "bottom": "912px"
        }
    }
}, {
    "action": "crop",
    "src": ["$data"],
    "dst": "$cropped",
    "settings": {
        "sides": {
            "left": "4560px",
            "top": "2736px",
            "right": "456px",
            "bottom": "608px"
        }
    }
}, {
    "action": "crop",
    "src": ["$data"],
    "dst": "$cropped",
    "settings": {
        "sides": {
            "left": "4560px",
            "top": "3040px",
            "right": "456px",
            "bottom": "304px"
        }
    }
}, {
    "action": "crop",
    "src": ["$data"],
    "dst": "$cropped",
    "settings": {
        "sides": {
            "left": "4560px",
            "top": "3344px",
            "right": "456px",
            "bottom": "0px"
        }
    }
}, {
    "action": "crop",
    "src": ["$data"],
    "dst": "$cropped",
    "settings": {
        "sides": {
            "left": "5016px",
            "top": "0px",
            "right": "0px",
            "bottom": "3344px"
        }
    }
}, {
    "action": "crop",
    "src": ["$data"],
    "dst": "$cropped",
    "settings": {
        "sides": {
            "left": "5016px",
            "top": "304px",
            "right": "0px",
            "bottom": "3040px"
        }
    }
}, {
    "action": "crop",
    "src": ["$data"],
    "dst": "$cropped",
    "settings": {
        "sides": {
            "left": "5016px",
            "top": "608px",
            "right": "0px",
            "bottom": "2736px"
        }
    }
}, {
    "action": "crop",
    "src": ["$data"],
    "dst": "$cropped",
    "settings": {
        "sides": {
            "left": "5016px",
            "top": "912px",
            "right": "0px",
            "bottom": "2432px"
        }
    }
}, {
    "action": "crop",
    "src": ["$data"],
    "dst": "$cropped",
    "settings": {
        "sides": {
            "left": "5016px",
            "top": "1216px",
            "right": "0px",
            "bottom": "2128px"
        }
    }
}, {
    "action": "crop",
    "src": ["$data"],
    "dst": "$cropped",
    "settings": {
        "sides": {
            "left": "5016px",
            "top": "1520px",
            "right": "0px",
            "bottom": "1824px"
        }
    }
}, {
    "action": "crop",
    "src": ["$data"],
    "dst": "$cropped",
    "settings": {
        "sides": {
            "left": "5016px",
            "top": "1824px",
            "right": "0px",
            "bottom": "1520px"
        }
    }
}, {
    "action": "crop",
    "src": ["$data"],
    "dst": "$cropped",
    "settings": {
        "sides": {
            "left": "5016px",
            "top": "2128px",
            "right": "0px",
            "bottom": "1216px"
        }
    }
}, {
    "action": "crop",
    "src": ["$data"],
    "dst": "$cropped",
    "settings": {
        "sides": {
            "left": "5016px",
            "top": "2432px",
            "right": "0px",
            "bottom": "912px"
        }
    }
}, {
    "action": "crop",
    "src": ["$data"],
    "dst": "$cropped",
    "settings": {
        "sides": {
            "left": "5016px",
            "top": "2736px",
            "right": "0px",
            "bottom": "608px"
        }
    }
}, {
    "action": "crop",
    "src": ["$data"],
    "dst": "$cropped",
    "settings": {
        "sides": {
            "left": "5016px",
            "top": "3040px",
            "right": "0px",
            "bottom": "304px"
        }
    }
}, {
    "action": "crop",
    "src": ["$data"],
    "dst": "$cropped",
    "settings": {
        "sides": {
            "left": "5016px",
            "top": "3344px",
            "right": "0px",
            "bottom": "0px"
        }
    }
}, ]